Introduction to DS - Data Wrangling | ThisisXXZ's Blog
…
1
2
3
4
5
6
7
8
9
10

dat |> separate(name, c("year, name"), extra = "merge")
#> # A tibble: 224 × 4
#>   country year  name            value
#>   <chr>   <chr> <chr>           <dbl>
#> 1 Germany 1960  fertility        2.41
#> 2 Germany 1960  life_expectancy 69.3 
#> 3 Germany 1961  fertility        2.44
#> 4 Germany 1961  life_expectancy 69.8 
#> 5 Germany 1962  fertility        2.47
#> # ℹ 219 more rows
…
dat |>
    separate(name, c("year", "name"), extra = "merge") |>
    pivot_wider()
#> # A tibble: 112 × 4
#>   country year  fertility life_expectancy
#>   <chr>   <chr>     <dbl>           <dbl>
#> 1 Germany 1960       2.41            69.3
#> 2 Germany 1961       2.44            69.8
#> 3 Germany 1962       2.47            70.0
#> 4 Germany 1963       2.49            70.1
#> 5 Germany 1964       2.49            70.7
#> # ℹ 107 more rows
…
dat |>
    separate(name, c("year", "first", "second"), fill = "right") |>
    unite(name, first_variable_name, second_variable_name) |>
    pivot_wider() |>
    rename(fertility = fertility_NA)
#> # A tibble: 112 × 4
#>   country year  fertility life_expectancy
#>   <chr>   <chr>     <dbl>           <dbl>
#> 1 Germany 1960       2.41            69.3
#> 2 Germany 1961       2.44            69.8
#> 3 Germany 1962       2.47            70.0
#> 4 Germany 1963       2.49            70.1
#> 5 Germany 1964       2.49            70.7
#> # ℹ 107 more rows
…
1
2
3
4
5
6
7
8
9
10
11

tab <- tab |> setNames(c("state", "population", "total", "murder_rate"))
head(tab)
#> # A tibble: 6 × 4
#>   state      population total murder_rate
#>   <chr>      <chr>      <chr>       <dbl>
#> 1 Alabama    4,853,875  348           7.2
#> 2 Alaska     737,709    59            8  
#> 3 Arizona    6,817,565  309           4.5
#> 4 Arkansas   2,977,853  181           6.1
#> 5 California 38,993,940 1,861         4.8
#> # ℹ 1 more row
…
